Data_social_network
…
Relation between the time spend on social networks (and video games) and the sleeping hours

sleep <- mutate(sleep, sleeping_time = 24-bed_time+wake_up_time)

sleep

## # A tibble: 30 x 10
##       id sex     age facebook_and_messe… other_social_net… video_game_time
##    <int> <fct> <int>               <dbl>             <dbl>           <dbl>
##  1     1 M        19               1.25              0.750           0.250
##  2     2 F        18               1.75              0.250           0.750
##  3     3 F        17               1.00              0.125           0.   
##  4     4 F        16               1.00              1.50            0.   
##  5     5 F        45               0.                0.              0.   
##  6     6 M        47               0.                0.              0.   
##  7     7 M        23               0.                0.              6.00 
##  8     8 M        28               0.150             0.              6.00 
##  9     9 M        24               0.150             0.              6.00 
## 10    10 M        30               0.150             0.              4.00 
## # ... with 20 more rows, and 4 more variables: wake_up_time <dbl>,
## #   bed_time <dbl>, commentaire <chr>, sleeping_time <dbl>
…
